[api-updater (non-obsolete-error-filter)] 10/10/2021 3:48:42 PM : Starting C:/Program Files/Unity/Hub/Editor/2020.3.12f1/Editor/Data/Tools/ScriptUpdater/APIUpdater.NonObsoleteApiUpdaterDetector.exe
[api-updater (non-obsolete-error-filter)] 
----------------------------------
jit/startup time      : 1184.1614ms
moved types parse time: 96ms
candidates parse time : 2ms
C# parse time         : 379ms
candidates check time : 70ms
console write time    : 1ms

[api-updater (non-obsolete-error-filter)] 10/10/2021 7:11:42 PM : Starting C:/Program Files/Unity/Hub/Editor/2020.3.12f1/Editor/Data/Tools/ScriptUpdater/APIUpdater.NonObsoleteApiUpdaterDetector.exe
[api-updater (non-obsolete-error-filter)] 
----------------------------------
jit/startup time      : 132.6448ms
moved types parse time: 91ms
candidates parse time : 2ms
C# parse time         : 341ms
candidates check time : 85ms
console write time    : 1ms

[api-updater (non-obsolete-error-filter)] 10/10/2021 7:12:10 PM : Starting C:/Program Files/Unity/Hub/Editor/2020.3.12f1/Editor/Data/Tools/ScriptUpdater/APIUpdater.NonObsoleteApiUpdaterDetector.exe
[api-updater (non-obsolete-error-filter)] 
----------------------------------
jit/startup time      : 125.6655ms
moved types parse time: 93ms
candidates parse time : 2ms
C# parse time         : 335ms
candidates check time : 73ms
console write time    : 0ms

[api-updater (non-obsolete-error-filter)] 10/10/2021 7:15:12 PM : Starting C:/Program Files/Unity/Hub/Editor/2020.3.12f1/Editor/Data/Tools/ScriptUpdater/APIUpdater.NonObsoleteApiUpdaterDetector.exe
[api-updater (non-obsolete-error-filter)] 
----------------------------------
jit/startup time      : 129.9623ms
moved types parse time: 91ms
candidates parse time : 2ms
C# parse time         : 329ms
candidates check time : 49ms
console write time    : 0ms

[api-updater (non-obsolete-error-filter)] 10/10/2021 7:15:25 PM : Starting C:/Program Files/Unity/Hub/Editor/2020.3.12f1/Editor/Data/Tools/ScriptUpdater/APIUpdater.NonObsoleteApiUpdaterDetector.exe
[api-updater (non-obsolete-error-filter)] 
----------------------------------
jit/startup time      : 125.9408ms
moved types parse time: 91ms
candidates parse time : 2ms
C# parse time         : 327ms
candidates check time : 46ms
console write time    : 0ms

[api-updater (non-obsolete-error-filter)] 10/10/2021 7:16:07 PM : Starting C:/Program Files/Unity/Hub/Editor/2020.3.12f1/Editor/Data/Tools/ScriptUpdater/APIUpdater.NonObsoleteApiUpdaterDetector.exe
[api-updater (non-obsolete-error-filter)] 
----------------------------------
jit/startup time      : 161.756ms
moved types parse time: 92ms
candidates parse time : 2ms
C# parse time         : 325ms
candidates check time : 49ms
console write time    : 0ms

[api-updater (non-obsolete-error-filter)] 10/10/2021 7:18:23 PM : Starting C:/Program Files/Unity/Hub/Editor/2020.3.12f1/Editor/Data/Tools/ScriptUpdater/APIUpdater.NonObsoleteApiUpdaterDetector.exe
[api-updater (non-obsolete-error-filter)] 
----------------------------------
jit/startup time      : 125.719ms
moved types parse time: 90ms
candidates parse time : 2ms
C# parse time         : 329ms
candidates check time : 47ms
console write time    : 0ms

[api-updater (non-obsolete-error-filter)] 10/10/2021 7:18:48 PM : Starting C:/Program Files/Unity/Hub/Editor/2020.3.12f1/Editor/Data/Tools/ScriptUpdater/APIUpdater.NonObsoleteApiUpdaterDetector.exe
[api-updater (non-obsolete-error-filter)] 
----------------------------------
jit/startup time      : 125.9921ms
moved types parse time: 90ms
candidates parse time : 2ms
C# parse time         : 330ms
candidates check time : 48ms
console write time    : 1ms

[api-updater (non-obsolete-error-filter)] 10/10/2021 7:19:21 PM : Starting C:/Program Files/Unity/Hub/Editor/2020.3.12f1/Editor/Data/Tools/ScriptUpdater/APIUpdater.NonObsoleteApiUpdaterDetector.exe
[api-updater (non-obsolete-error-filter)] 
----------------------------------
jit/startup time      : 129.4722ms
moved types parse time: 90ms
candidates parse time : 2ms
C# parse time         : 328ms
candidates check time : 48ms
console write time    : 0ms

[api-updater (non-obsolete-error-filter)] 10/10/2021 7:19:38 PM : Starting C:/Program Files/Unity/Hub/Editor/2020.3.12f1/Editor/Data/Tools/ScriptUpdater/APIUpdater.NonObsoleteApiUpdaterDetector.exe
[api-updater (non-obsolete-error-filter)] 
----------------------------------
jit/startup time      : 130.9558ms
moved types parse time: 91ms
candidates parse time : 2ms
C# parse time         : 327ms
candidates check time : 47ms
console write time    : 0ms

[api-updater (non-obsolete-error-filter)] 10/10/2021 7:19:46 PM : Starting C:/Program Files/Unity/Hub/Editor/2020.3.12f1/Editor/Data/Tools/ScriptUpdater/APIUpdater.NonObsoleteApiUpdaterDetector.exe
[api-updater (non-obsolete-error-filter)] 
----------------------------------
jit/startup time      : 126.3276ms
moved types parse time: 94ms
candidates parse time : 2ms
C# parse time         : 336ms
candidates check time : 48ms
console write time    : 0ms

[api-updater (non-obsolete-error-filter)] 10/10/2021 7:19:55 PM : Starting C:/Program Files/Unity/Hub/Editor/2020.3.12f1/Editor/Data/Tools/ScriptUpdater/APIUpdater.NonObsoleteApiUpdaterDetector.exe
[api-updater (non-obsolete-error-filter)] 
----------------------------------
jit/startup time      : 124.6697ms
moved types parse time: 92ms
candidates parse time : 2ms
C# parse time         : 355ms
candidates check time : 48ms
console write time    : 1ms

[api-updater (non-obsolete-error-filter)] 10/10/2021 7:22:14 PM : Starting C:/Program Files/Unity/Hub/Editor/2020.3.12f1/Editor/Data/Tools/ScriptUpdater/APIUpdater.NonObsoleteApiUpdaterDetector.exe
[api-updater (non-obsolete-error-filter)] 
----------------------------------
jit/startup time      : 128.6553ms
moved types parse time: 108ms
candidates parse time : 2ms
C# parse time         : 358ms
candidates check time : 71ms
console write time    : 0ms

