%YAML 1.1
%TAG !u! tag:unity3d.com,2011:
--- !u!162 &1
EditorUserSettings:
  m_ObjectHideFlags: 0
  serializedVersion: 4
  m_ConfigSettings:
    RecentlyUsedScenePath-0:
      value: 22424703114646680e0b0227036c6c111b07142f1f2b233e2867083debf42d
      flags: 0
    RecentlyUsedScenePath-1:
      value: 22424703114646680e0b0227036c681918572b293e2d233e633c133af6f9
      flags: 0
    RecentlyUsedScenePath-2:
      value: 22424703114646680e0b0227036c6c0417050c6a212d2825633c133af6f9
      flags: 0
    RecentlyUsedScenePath-3:
      value: 22424703114646680e0b0227036c6f19151c580b6c26333d2f2c0f7df7ee3d2cfb
      flags: 0
    RecentlyUsedScenePath-4:
      value: 22424703114646680e0b0227036c71051b151d386c1f2f2a2c3b1973b0ae6476f7e93ffdfe
      flags: 0
    vcSharedLogLevel:
      value: 0d5e400f0650
      flags: 0
  m_VCAutomaticAdd: 1
  m_VCDebugCom: 0
  m_VCDebugCmd: 0
  m_VCDebugOut: 0
  m_SemanticMergeMode: 2
  m_VCShowFailedCheckout: 1
  m_VCOverwriteFailedCheckoutAssets: 1
  m_VCProjectOverlayIcons: 1
  m_VCHierarchyOverlayIcons: 1
  m_VCOtherOverlayIcons: 1
  m_VCAllowAsyncUpdate: 1
