%YAML 1.1
%TAG !u! tag:unity3d.com,2011:
--- !u!114 &11400000
MonoBehaviour:
  m_ObjectHideFlags: 0
  m_CorrespondingSourceObject: {fileID: 0}
  m_PrefabInstance: {fileID: 0}
  m_PrefabAsset: {fileID: 0}
  m_GameObject: {fileID: 0}
  m_Enabled: 1
  m_EditorHideFlags: 0
  m_Script: {fileID: 11500000, guid: 0feda5e851609524fa7695db026f9fc0, type: 3}
  m_Name: Bathroom
  m_EditorClassIdentifier: 
  storyText: 'You go the the bathroom and when you leave your

    house has been
    blown up by either a missle or your explosive diaherra probably the lader.


    What
    should  you do?


    1. Should you go to a starbucks and  get some coffee


    2.
    Or should you weep and cry'
  nextStates:
  - {fileID: 11400000, guid: de941d3f598d03b4c9e8fc2723d53a95, type: 2}
  - {fileID: 11400000, guid: 56f36f32f19d3fb45a66278469ca1222, type: 2}
