%YAML 1.1
%TAG !u! tag:unity3d.com,2011:
--- !u!114 &11400000
MonoBehaviour:
  m_ObjectHideFlags: 0
  m_CorrespondingSourceObject: {fileID: 0}
  m_PrefabInstance: {fileID: 0}
  m_PrefabAsset: {fileID: 0}
  m_GameObject: {fileID: 0}
  m_Enabled: 1
  m_EditorHideFlags: 0
  m_Script: {fileID: 11500000, guid: 0feda5e851609524fa7695db026f9fc0, type: 3}
  m_Name: Cottage
  m_EditorClassIdentifier: 
  storyText: 'You go to the cottage and are having a good time untill you get sniped
    in the back of the head


    press 1 to restart'
  nextStates:
  - {fileID: 11400000, guid: af0aff824e1e7ff4baae2cb1c2a9bb63, type: 2}
