%YAML 1.1
%TAG !u! tag:unity3d.com,2011:
--- !u!114 &11400000
MonoBehaviour:
  m_ObjectHideFlags: 0
  m_CorrespondingSourceObject: {fileID: 0}
  m_PrefabInstance: {fileID: 0}
  m_PrefabAsset: {fileID: 0}
  m_GameObject: {fileID: 0}
  m_Enabled: 1
  m_EditorHideFlags: 0
  m_Script: {fileID: 11500000, guid: 0feda5e851609524fa7695db026f9fc0, type: 3}
  m_Name: rocket bathroom
  m_EditorClassIdentifier: 
  storyText: 'You use the bathroom


    what should you do?


    1. put yourself
    into stacis until you arrive on mars


    2. Don''t put yourself into stacis'
  nextStates:
  - {fileID: 11400000, guid: d0dd75ae229ef914ba80783287920771, type: 2}
  - {fileID: 11400000, guid: 86b6d3414e15dc647af7877df466e710, type: 2}
