%YAML 1.1
%TAG !u! tag:unity3d.com,2011:
--- !u!114 &11400000
MonoBehaviour:
  m_ObjectHideFlags: 0
  m_CorrespondingSourceObject: {fileID: 0}
  m_PrefabInstance: {fileID: 0}
  m_PrefabAsset: {fileID: 0}
  m_GameObject: {fileID: 0}
  m_Enabled: 1
  m_EditorHideFlags: 0
  m_Script: {fileID: 11500000, guid: 0feda5e851609524fa7695db026f9fc0, type: 3}
  m_Name: Stacis
  m_EditorClassIdentifier: 
  storyText: 'You go into stacis  and when it wakes you up you are  on mars


    What
    do you do?


    1. Go outside and explore


    2. Go outside and explore'
  nextStates:
  - {fileID: 11400000, guid: 02e51aefb2c6d5849a9647218e7de592, type: 2}
  - {fileID: 11400000, guid: 02e51aefb2c6d5849a9647218e7de592, type: 2}
