%YAML 1.1
%TAG !u! tag:unity3d.com,2011:
--- !u!114 &11400000
MonoBehaviour:
  m_ObjectHideFlags: 0
  m_CorrespondingSourceObject: {fileID: 0}
  m_PrefabInstance: {fileID: 0}
  m_PrefabAsset: {fileID: 0}
  m_GameObject: {fileID: 0}
  m_Enabled: 1
  m_EditorHideFlags: 0
  m_Script: {fileID: 11500000, guid: 0feda5e851609524fa7695db026f9fc0, type: 3}
  m_Name: Store
  m_EditorClassIdentifier: 
  storyText: 'you go to the store and whil you''re there the cashier is being robbed


    What
    should you do?


    1. Stop the robbers


    2. Help the robbers rob the store'
  nextStates:
  - {fileID: 11400000, guid: 332b1577e5fcd264a898f006b2ae4a67, type: 2}
  - {fileID: 11400000, guid: 718c1c41611400e46a1109cdba8f49e9, type: 2}
